…
``` r
# For Question 2: I Chose to do task 2 and 8
# Group the data by the year column and calculate the number of NA values in the sym column. Then summarize the sum of the NA values.
result2 <- data %>%
  group_by(year) %>%
  summarise(NA_count = sum(is.na(sym)))
print(result2)
```

    ## # A tibble: 109 × 2
    ##     year NA_count
    ##    <dbl>    <int>
    ##  1  1909        2
    ##  2  1910        2
    ##  3  1911        2
    ##  4  1912        2
    ##  5  1913        1
    ##  6  1914        2
    ##  7  1915        2
    ##  8  1916        1
    ##  9  1917        1
    ## 10  1918        1
    ## # ℹ 99 more rows
…
# For Question 3: I chose to do task 1 and 8
# Here I calculate the summary stats for the flow variable across the years. First, I group by years (using group_by) and then I  calculate the different summary statistics (ie. range, mean, median, SD, and IQR) all using the flow variable since that's what we're interested in.
result3 <- data %>%
  group_by(year) %>%
  summarise(
    Range = max(flow, na.rm = TRUE) - min(flow, na.rm = TRUE),
    Mean = mean(flow, na.rm = TRUE),
    Median = median(flow, na.rm = TRUE),
    SD = sd(flow, na.rm = TRUE),
    IQR = IQR(flow, na.rm = TRUE)
  )
print(result3)
```

    ## # A tibble: 109 × 6
    ##     year Range  Mean Median    SD   IQR
    ##    <dbl> <dbl> <dbl>  <dbl> <dbl> <dbl>
    ##  1  1909    0  314    314     NA    0  
    ##  2  1910    0  230    230     NA    0  
    ##  3  1911  258. 135.   135.   183. 129. 
    ##  4  1912  168.  89.9   89.9  119.  84.1
    ##  5  1913  226. 119.   119.   160. 113. 
    ##  6  1914  207. 111.   111.   146. 103. 
    ##  7  1915  229. 121.   121.   162. 115. 
    ##  8  1916  302. 158.   158.   214. 151. 
    ##  9  1917  168.  90.0   90.0  119.  84.0
    ## 10  1918  339. 176.   176.   240. 169. 
    ## # ℹ 99 more rows
…
``` r
# For Question 4: I chose to do task 2 and 8
# Create a new df where the max_flow column contains the max flow rate for each year and the min flow rate is the minimum flow rate of each year. Once again, I grouped by year.
result4 <- data %>%
  group_by(year) %>%
  summarise(
    max_flow = max(flow, na.rm = TRUE),
    min_flow = min(flow, na.rm = TRUE)
  )
print(result4)
```

    ## # A tibble: 109 × 3
    ##     year max_flow min_flow
    ##    <dbl>    <dbl>    <dbl>
    ##  1  1909      314   314   
    ##  2  1910      230   230   
    ##  3  1911      264     5.75
    ##  4  1912      174     5.8 
    ##  5  1913      232     6.12
    ##  6  1914      214     7.16
    ##  7  1915      236     6.94
    ##  8  1916      309     6.97
    ##  9  1917      174     6.06
    ## 10  1918      345     6.03
    ## # ℹ 99 more rows
…
<!--------------------------- Start your work below --------------------------->

``` r
# Here I filter out the rows where flow has NA values and then remove the station_id and sym columns (using the select function) as they are not useful for my analysis. I then use rename to make the column names better (ie. capitalize the first letter) and finally I grouped by year.
updated_data <- data %>%
  filter(!is.na(flow)) %>%  # Remove rows with NA values in the flow column
  select(-station_id, -sym) %>%  # Remove station_id and sym columns
  rename(Year = year, Month = month, Day = day, FlowRate = flow) %>%  # Rename columns
  group_by(Year)

updated_data
```

    ## # A tibble: 216 × 5
    ## # Groups:   Year [109]
    ##     Year extreme_type Month   Day FlowRate
    ##    <dbl> <chr>        <dbl> <dbl>    <dbl>
    ##  1  1909 maximum          7     7      314
    ##  2  1910 maximum          6    12      230
    ##  3  1911 maximum          6    14      264
    ##  4  1912 maximum          8    25      174
    ##  5  1913 maximum          6    11      232
    ##  6  1914 maximum          6    18      214
    ##  7  1915 maximum          6    27      236
    ##  8  1916 maximum          6    20      309
    ##  9  1917 maximum          6    17      174
    ## 10  1918 maximum          6    15      345
    ## # ℹ 206 more rows
…
